LineNumber,VariableName,Type,Description
1,DL1dv00_pb,vector<float>,Posterior score of DL1dv00 tagger (replaced by DL1dv01)
2,DL1dv00_pc,vector<float>,Posterior score of DL1dv00 tagger (replaced by DL1dv01)
3,DL1dv00_pu,vector<float>,Posterior score of DL1dv00 tagger (replaced by DL1dv01)
4,DL1dv01_pu,vector<float>,Posterior score of DL1dv01 tagger
5,DL1dv01_pc,vector<float>,Posterior score of DL1dv01 tagger
6,DL1dv01_pb,vector<float>,Posterior score of DL1dv01 tagger
